{
	"ID": 101,
	"firstName": "Jeanny",
	"lastName:": "Sy",
	"email": "jeanny.sy@bootcamp.com",
	"password": "kjneiuni45434",
	"mobile": 09178764908,
	"IsAdmin": false,
	"Order_ID": [
		10027,
		10059,
		10063
	]
}

{
	"ID": 102,
	"firstName": "Caitlyn",
	"lastName:": "Reyes",
	"email": "Caitlyn.r@bootcamp.com",
	"password": "pojoin47874",
	"mobile": 09179746930,
	"IsAdmin": false,
	"Order_ID": [
		null
	]
}

{
	"ID": 103,
	"firstName": "Calvin",
	"lastName:": "Dela Cruz",
	"email": "C.delacruz@bootcamp.com",
	"password": "awevdsv57567",
	"mobile": 09177385739,
	"IsAdmin": false,
	"Order_ID": [
		10080
	]
}
